{
  "plugin_id": "cobblemonworkers:base_furnace",
  "block_mapping": {
    "minecraft:furnace": "cobblemonworkers:kindling",
    "minecraft:smoker": "cobblemonworkers:kindling",
    "minecraft:blast_furnace": "cobblemonworkers:kindling"
  }
}